%YAML 1.1
%TAG !u! tag:unity3d.com,2011:
--- !u!29 &1
OcclusionCullingSettings:
  m_ObjectHideFlags: 0
  serializedVersion: 2
  m_OcclusionBakeSettings:
    smallestOccluder: 5
    smallestHole: 0.25
    backfaceThreshold: 100
  m_SceneGUID: 00000000000000000000000000000000
  m_OcclusionCullingData: {fileID: 0}
--- !u!104 &2
RenderSettings:
  m_ObjectHideFlags: 0
  serializedVersion: 9
  m_Fog: 0
  m_FogColor: {r: 0.5, g: 0.5, b: 0.5, a: 1}
  m_FogMode: 3
  m_FogDensity: 0.01
  m_LinearFogStart: 0
  m_LinearFogEnd: 300
  m_AmbientSkyColor: {r: 0.212, g: 0.227, b: 0.259, a: 1}
  m_AmbientEquatorColor: {r: 0.114, g: 0.125, b: 0.133, a: 1}
  m_AmbientGroundColor: {r: 0.047, g: 0.043, b: 0.035, a: 1}
  m_AmbientIntensity: 1
  m_AmbientMode: 0
  m_SubtractiveShadowColor: {r: 0.42, g: 0.478, b: 0.627, a: 1}
  m_SkyboxMaterial: {fileID: 10304, guid: 0000000000000000f000000000000000, type: 0}
  m_HaloStrength: 0.5
  m_FlareStrength: 1
  m_FlareFadeSpeed: 3
  m_HaloTexture: {fileID: 0}
  m_SpotCookie: {fileID: 10001, guid: 0000000000000000e000000000000000, type: 0}
  m_DefaultReflectionMode: 0
  m_DefaultReflectionResolution: 128
  m_ReflectionBounces: 1
  m_ReflectionIntensity: 1
  m_CustomReflection: {fileID: 0}
  m_Sun: {fileID: 0}
  m_IndirectSpecularColor: {r: 0.45047015, g: 0.50047225, b: 0.57516986, a: 1}
  m_UseRadianceAmbientProbe: 0
--- !u!157 &3
LightmapSettings:
  m_ObjectHideFlags: 0
  serializedVersion: 12
  m_GIWorkflowMode: 1
  m_GISettings:
    serializedVersion: 2
    m_BounceScale: 1
    m_IndirectOutputScale: 1
    m_AlbedoBoost: 1
    m_EnvironmentLightingMode: 0
    m_EnableBakedLightmaps: 1
    m_EnableRealtimeLightmaps: 0
  m_LightmapEditorSettings:
    serializedVersion: 12
    m_Resolution: 2
    m_BakeResolution: 40
    m_AtlasSize: 1024
    m_AO: 0
    m_AOMaxDistance: 1
    m_CompAOExponent: 1
    m_CompAOExponentDirect: 0
    m_ExtractAmbientOcclusion: 0
    m_Padding: 2
    m_LightmapParameters: {fileID: 0}
    m_LightmapsBakeMode: 1
    m_TextureCompression: 1
    m_FinalGather: 0
    m_FinalGatherFiltering: 1
    m_FinalGatherRayCount: 256
    m_ReflectionCompression: 2
    m_MixedBakeMode: 2
    m_BakeBackend: 1
    m_PVRSampling: 1
    m_PVRDirectSampleCount: 32
    m_PVRSampleCount: 512
    m_PVRBounces: 2
    m_PVREnvironmentSampleCount: 256
    m_PVREnvironmentReferencePointCount: 2048
    m_PVRFilteringMode: 1
    m_PVRDenoiserTypeDirect: 1
    m_PVRDenoiserTypeIndirect: 1
    m_PVRDenoiserTypeAO: 1
    m_PVRFilterTypeDirect: 0
    m_PVRFilterTypeIndirect: 0
    m_PVRFilterTypeAO: 0
    m_PVREnvironmentMIS: 1
    m_PVRCulling: 1
    m_PVRFilteringGaussRadiusDirect: 1
    m_PVRFilteringGaussRadiusIndirect: 5
    m_PVRFilteringGaussRadiusAO: 2
    m_PVRFilteringAtrousPositionSigmaDirect: 0.5
    m_PVRFilteringAtrousPositionSigmaIndirect: 2
    m_PVRFilteringAtrousPositionSigmaAO: 1
    m_ExportTrainingData: 0
    m_TrainingDataDestination: TrainingData
    m_LightProbeSampleCountMultiplier: 4
  m_LightingDataAsset: {fileID: 0}
  m_LightingSettings: {fileID: 0}
--- !u!196 &4
NavMeshSettings:
  serializedVersion: 2
  m_ObjectHideFlags: 0
  m_BuildSettings:
    serializedVersion: 2
    agentTypeID: 0
    agentRadius: 0.5
    agentHeight: 2
    agentSlope: 45
    agentClimb: 0.4
    ledgeDropHeight: 0
    maxJumpAcrossDistance: 0
    minRegionArea: 2
    manualCellSize: 0
    cellSize: 0.16666667
    manualTileSize: 0
    tileSize: 256
    accuratePlacement: 0
    maxJobWorkers: 0
    preserveTilesOutsideBounds: 0
    debug:
      m_Flags: 0
  m_NavMeshData: {fileID: 0}
--- !u!1 &208221186
GameObject:
  m_ObjectHideFlags: 0
  m_CorrespondingSourceObject: {fileID: 0}
  m_PrefabInstance: {fileID: 0}
  m_PrefabAsset: {fileID: 0}
  serializedVersion: 6
  m_Component:
  - component: {fileID: 208221187}
  - component: {fileID: 208221189}
  - component: {fileID: 208221188}
  m_Layer: 0
  m_Name: TextTimer
  m_TagString: Untagged
  m_Icon: {fileID: 0}
  m_NavMeshLayer: 0
  m_StaticEditorFlags: 0
  m_IsActive: 1
--- !u!224 &208221187
RectTransform:
  m_ObjectHideFlags: 0
  m_CorrespondingSourceObject: {fileID: 0}
  m_PrefabInstance: {fileID: 0}
  m_PrefabAsset: {fileID: 0}
  m_GameObject: {fileID: 208221186}
  m_LocalRotation: {x: 0.008727774, y: -0, z: -0, w: 0.9999619}
  m_LocalPosition: {x: 0, y: 0, z: 0}
  m_LocalScale: {x: 1.0976, y: 1.0976, z: 1.0976}
  m_Children: []
  m_Father: {fileID: 1044969133}
  m_RootOrder: 5
  m_LocalEulerAnglesHint: {x: 1, y: 0, z: 0}
  m_AnchorMin: {x: 1, y: 1}
  m_AnchorMax: {x: 1, y: 1}
  m_AnchoredPosition: {x: -82, y: -100}
  m_SizeDelta: {x: 160, y: 30}
  m_Pivot: {x: 0.5, y: 0.5}
--- !u!114 &208221188
MonoBehaviour:
  m_ObjectHideFlags: 0
  m_CorrespondingSourceObject: {fileID: 0}
  m_PrefabInstance: {fileID: 0}
  m_PrefabAsset: {fileID: 0}
  m_GameObject: {fileID: 208221186}
  m_Enabled: 1
  m_EditorHideFlags: 0
  m_Script: {fileID: 11500000, guid: 5f7201a12d95ffc409449d95f23cf332, type: 3}
  m_Name: 
  m_EditorClassIdentifier: 
  m_Material: {fileID: 0}
  m_Color: {r: 0.19607843, g: 0.19607843, b: 0.19607843, a: 1}
  m_RaycastTarget: 1
  m_RaycastPadding: {x: 0, y: 0, z: 0, w: 0}
  m_Maskable: 1
  m_OnCullStateChanged:
    m_PersistentCalls:
      m_Calls: []
  m_FontData:
    m_Font: {fileID: 10102, guid: 0000000000000000e000000000000000, type: 0}
    m_FontSize: 20
    m_FontStyle: 0
    m_BestFit: 0
    m_MinSize: 2
    m_MaxSize: 40
    m_Alignment: 0
    m_AlignByGeometry: 0
    m_RichText: 1
    m_HorizontalOverflow: 0
    m_VerticalOverflow: 0
    m_LineSpacing: 1
  m_Text: 'Time Left:'
--- !u!222 &208221189
CanvasRenderer:
  m_ObjectHideFlags: 0
  m_CorrespondingSourceObject: {fileID: 0}
  m_PrefabInstance: {fileID: 0}
  m_PrefabAsset: {fileID: 0}
  m_GameObject: {fileID: 208221186}
  m_CullTransparentMesh: 1
--- !u!1001 &418920274
PrefabInstance:
  m_ObjectHideFlags: 0
  serializedVersion: 2
  m_Modification:
    m_TransformParent: {fileID: 0}
    m_Modifications:
    - target: {fileID: 3889076533995712753, guid: 8e8b722cbdccc471ea56ddf74f3ed7de, type: 3}
      propertyPath: m_RootOrder
      value: 4
      objectReference: {fileID: 0}
    - target: {fileID: 3889076533995712753, guid: 8e8b722cbdccc471ea56ddf74f3ed7de, type: 3}
      propertyPath: m_LocalPosition.x
      value: -0.75
      objectReference: {fileID: 0}
    - target: {fileID: 3889076533995712753, guid: 8e8b722cbdccc471ea56ddf74f3ed7de, type: 3}
      propertyPath: m_LocalPosition.y
      value: 3.6
      objectReference: {fileID: 0}
    - target: {fileID: 3889076533995712753, guid: 8e8b722cbdccc471ea56ddf74f3ed7de, type: 3}
      propertyPath: m_LocalPosition.z
      value: -0.3
      objectReference: {fileID: 0}
    - target: {fileID: 3889076533995712753, guid: 8e8b722cbdccc471ea56ddf74f3ed7de, type: 3}
      propertyPath: m_LocalRotation.w
      value: 0.78665394
      objectReference: {fileID: 0}
    - target: {fileID: 3889076533995712753, guid: 8e8b722cbdccc471ea56ddf74f3ed7de, type: 3}
      propertyPath: m_LocalRotation.x
      value: 0.26168486
      objectReference: {fileID: 0}
    - target: {fileID: 3889076533995712753, guid: 8e8b722cbdccc471ea56ddf74f3ed7de, type: 3}
      propertyPath: m_LocalRotation.y
      value: 0.5306048
      objectReference: {fileID: 0}
    - target: {fileID: 3889076533995712753, guid: 8e8b722cbdccc471ea56ddf74f3ed7de, type: 3}
      propertyPath: m_LocalRotation.z
      value: -0.17650867
      objectReference: {fileID: 0}
    - target: {fileID: 3889076533995712753, guid: 8e8b722cbdccc471ea56ddf74f3ed7de, type: 3}
      propertyPath: m_LocalEulerAnglesHint.x
      value: 36.8
      objectReference: {fileID: 0}
    - target: {fileID: 3889076533995712753, guid: 8e8b722cbdccc471ea56ddf74f3ed7de, type: 3}
      propertyPath: m_LocalEulerAnglesHint.y
      value: 68
      objectReference: {fileID: 0}
    - target: {fileID: 3889076533995712753, guid: 8e8b722cbdccc471ea56ddf74f3ed7de, type: 3}
      propertyPath: m_LocalEulerAnglesHint.z
      value: 0
      objectReference: {fileID: 0}
    - target: {fileID: 3889076533995712755, guid: 8e8b722cbdccc471ea56ddf74f3ed7de, type: 3}
      propertyPath: m_Name
      value: Light
      objectReference: {fileID: 0}
    m_RemovedComponents: []
  m_SourcePrefab: {fileID: 100100000, guid: 8e8b722cbdccc471ea56ddf74f3ed7de, type: 3}
--- !u!1001 &612551544
PrefabInstance:
  m_ObjectHideFlags: 0
  serializedVersion: 2
  m_Modification:
    m_TransformParent: {fileID: 0}
    m_Modifications:
    - target: {fileID: 5277711265749226526, guid: e4ee39a13a9862345ad17ffcb589c0a8, type: 3}
      propertyPath: m_RootOrder
      value: 1
      objectReference: {fileID: 0}
    - target: {fileID: 5277711265749226526, guid: e4ee39a13a9862345ad17ffcb589c0a8, type: 3}
      propertyPath: m_LocalScale.x
      value: 2.4177032
      objectReference: {fileID: 0}
    - target: {fileID: 5277711265749226526, guid: e4ee39a13a9862345ad17ffcb589c0a8, type: 3}
      propertyPath: m_LocalScale.y
      value: 2.6692622
      objectReference: {fileID: 0}
    - target: {fileID: 5277711265749226526, guid: e4ee39a13a9862345ad17ffcb589c0a8, type: 3}
      propertyPath: m_LocalScale.z
      value: 1.9437295
      objectReference: {fileID: 0}
    - target: {fileID: 5277711265749226526, guid: e4ee39a13a9862345ad17ffcb589c0a8, type: 3}
      propertyPath: m_LocalPosition.x
      value: 14.09
      objectReference: {fileID: 0}
    - target: {fileID: 5277711265749226526, guid: e4ee39a13a9862345ad17ffcb589c0a8, type: 3}
      propertyPath: m_LocalPosition.y
      value: -0.62
      objectReference: {fileID: 0}
    - target: {fileID: 5277711265749226526, guid: e4ee39a13a9862345ad17ffcb589c0a8, type: 3}
      propertyPath: m_LocalPosition.z
      value: 0
      objectReference: {fileID: 0}
    - target: {fileID: 5277711265749226526, guid: e4ee39a13a9862345ad17ffcb589c0a8, type: 3}
      propertyPath: m_LocalRotation.w
      value: 1
      objectReference: {fileID: 0}
    - target: {fileID: 5277711265749226526, guid: e4ee39a13a9862345ad17ffcb589c0a8, type: 3}
      propertyPath: m_LocalRotation.x
      value: 0
      objectReference: {fileID: 0}
    - target: {fileID: 5277711265749226526, guid: e4ee39a13a9862345ad17ffcb589c0a8, type: 3}
      propertyPath: m_LocalRotation.y
      value: 0
      objectReference: {fileID: 0}
    - target: {fileID: 5277711265749226526, guid: e4ee39a13a9862345ad17ffcb589c0a8, type: 3}
      propertyPath: m_LocalRotation.z
      value: 0
      objectReference: {fileID: 0}
    - target: {fileID: 5277711265749226526, guid: e4ee39a13a9862345ad17ffcb589c0a8, type: 3}
      propertyPath: m_LocalEulerAnglesHint.x
      value: 0
      objectReference: {fileID: 0}
    - target: {fileID: 5277711265749226526, guid: e4ee39a13a9862345ad17ffcb589c0a8, type: 3}
      propertyPath: m_LocalEulerAnglesHint.y
      value: 0
      objectReference: {fileID: 0}
    - target: {fileID: 5277711265749226526, guid: e4ee39a13a9862345ad17ffcb589c0a8, type: 3}
      propertyPath: m_LocalEulerAnglesHint.z
      value: 0
      objectReference: {fileID: 0}
    - target: {fileID: 5816127101644977635, guid: e4ee39a13a9862345ad17ffcb589c0a8, type: 3}
      propertyPath: m_Name
      value: Wall
      objectReference: {fileID: 0}
    m_RemovedComponents: []
  m_SourcePrefab: {fileID: 100100000, guid: e4ee39a13a9862345ad17ffcb589c0a8, type: 3}
--- !u!1 &615204692 stripped
GameObject:
  m_CorrespondingSourceObject: {fileID: 2603942412967885802, guid: 121f86fb39eee44fab4c667b07955a56, type: 3}
  m_PrefabInstance: {fileID: 1659233203}
  m_PrefabAsset: {fileID: 0}
--- !u!114 &615204696
MonoBehaviour:
  m_ObjectHideFlags: 0
  m_CorrespondingSourceObject: {fileID: 0}
  m_PrefabInstance: {fileID: 0}
  m_PrefabAsset: {fileID: 0}
  m_GameObject: {fileID: 615204692}
  m_Enabled: 1
  m_EditorHideFlags: 0
  m_Script: {fileID: 11500000, guid: 100f9830da3bbd4429864c6beb3d236c, type: 3}
  m_Name: 
  m_EditorClassIdentifier: 
  Player: {fileID: 1956082339}
  Health: {fileID: 0}
--- !u!1001 &685216966
PrefabInstance:
  m_ObjectHideFlags: 0
  serializedVersion: 2
  m_Modification:
    m_TransformParent: {fileID: 0}
    m_Modifications:
    - target: {fileID: 5277711265749226526, guid: e4ee39a13a9862345ad17ffcb589c0a8, type: 3}
      propertyPath: m_RootOrder
      value: 11
      objectReference: {fileID: 0}
    - target: {fileID: 5277711265749226526, guid: e4ee39a13a9862345ad17ffcb589c0a8, type: 3}
      propertyPath: m_LocalScale.x
      value: 6.0718007
      objectReference: {fileID: 0}
    - target: {fileID: 5277711265749226526, guid: e4ee39a13a9862345ad17ffcb589c0a8, type: 3}
      propertyPath: m_LocalScale.y
      value: 14.586845
      objectReference: {fileID: 0}
    - target: {fileID: 5277711265749226526, guid: e4ee39a13a9862345ad17ffcb589c0a8, type: 3}
      propertyPath: m_LocalScale.z
      value: 1.9437295
      objectReference: {fileID: 0}
    - target: {fileID: 5277711265749226526, guid: e4ee39a13a9862345ad17ffcb589c0a8, type: 3}
      propertyPath: m_LocalPosition.x
      value: 33.16
      objectReference: {fileID: 0}
    - target: {fileID: 5277711265749226526, guid: e4ee39a13a9862345ad17ffcb589c0a8, type: 3}
      propertyPath: m_LocalPosition.y
      value: 8.76
      objectReference: {fileID: 0}
    - target: {fileID: 5277711265749226526, guid: e4ee39a13a9862345ad17ffcb589c0a8, type: 3}
      propertyPath: m_LocalPosition.z
      value: 0
      objectReference: {fileID: 0}
    - target: {fileID: 5277711265749226526, guid: e4ee39a13a9862345ad17ffcb589c0a8, type: 3}
      propertyPath: m_LocalRotation.w
      value: 1
      objectReference: {fileID: 0}
    - target: {fileID: 5277711265749226526, guid: e4ee39a13a9862345ad17ffcb589c0a8, type: 3}
      propertyPath: m_LocalRotation.x
      value: 0
      objectReference: {fileID: 0}
    - target: {fileID: 5277711265749226526, guid: e4ee39a13a9862345ad17ffcb589c0a8, type: 3}
      propertyPath: m_LocalRotation.y
      value: 0
      objectReference: {fileID: 0}
    - target: {fileID: 5277711265749226526, guid: e4ee39a13a9862345ad17ffcb589c0a8, type: 3}
      propertyPath: m_LocalRotation.z
      value: 0
      objectReference: {fileID: 0}
    - target: {fileID: 5277711265749226526, guid: e4ee39a13a9862345ad17ffcb589c0a8, type: 3}
      propertyPath: m_LocalEulerAnglesHint.x
      value: 0
      objectReference: {fileID: 0}
    - target: {fileID: 5277711265749226526, guid: e4ee39a13a9862345ad17ffcb589c0a8, type: 3}
      propertyPath: m_LocalEulerAnglesHint.y
      value: 0
      objectReference: {fileID: 0}
    - target: {fileID: 5277711265749226526, guid: e4ee39a13a9862345ad17ffcb589c0a8, type: 3}
      propertyPath: m_LocalEulerAnglesHint.z
      value: 0
      objectReference: {fileID: 0}
    - target: {fileID: 5816127101644977635, guid: e4ee39a13a9862345ad17ffcb589c0a8, type: 3}
      propertyPath: m_Name
      value: Wall (2)
      objectReference: {fileID: 0}
    m_RemovedComponents: []
  m_SourcePrefab: {fileID: 100100000, guid: e4ee39a13a9862345ad17ffcb589c0a8, type: 3}
--- !u!1001 &779509008
PrefabInstance:
  m_ObjectHideFlags: 0
  serializedVersion: 2
  m_Modification:
    m_TransformParent: {fileID: 0}
    m_Modifications:
    - target: {fileID: 1232642526394195318, guid: be47ac35f899a42c2b88ba88da941498, type: 3}
      propertyPath: m_Name
      value: MovementBlocker
      objectReference: {fileID: 0}
    - target: {fileID: 1232642526394195319, guid: be47ac35f899a42c2b88ba88da941498, type: 3}
      propertyPath: m_RootOrder
      value: 2
      objectReference: {fileID: 0}
    - target: {fileID: 1232642526394195319, guid: be47ac35f899a42c2b88ba88da941498, type: 3}
      propertyPath: m_LocalPosition.x
      value: 49.8
      objectReference: {fileID: 0}
    - target: {fileID: 1232642526394195319, guid: be47ac35f899a42c2b88ba88da941498, type: 3}
      propertyPath: m_LocalPosition.y
      value: -1.5000002
      objectReference: {fileID: 0}
    - target: {fileID: 1232642526394195319, guid: be47ac35f899a42c2b88ba88da941498, type: 3}
      propertyPath: m_LocalPosition.z
      value: 0.37967157
      objectReference: {fileID: 0}
    - target: {fileID: 1232642526394195319, guid: be47ac35f899a42c2b88ba88da941498, type: 3}
      propertyPath: m_LocalRotation.w
      value: 1
      objectReference: {fileID: 0}
    - target: {fileID: 1232642526394195319, guid: be47ac35f899a42c2b88ba88da941498, type: 3}
      propertyPath: m_LocalRotation.x
      value: 0
      objectReference: {fileID: 0}
    - target: {fileID: 1232642526394195319, guid: be47ac35f899a42c2b88ba88da941498, type: 3}
      propertyPath: m_LocalRotation.y
      value: 0
      objectReference: {fileID: 0}
    - target: {fileID: 1232642526394195319, guid: be47ac35f899a42c2b88ba88da941498, type: 3}
      propertyPath: m_LocalRotation.z
      value: 0
      objectReference: {fileID: 0}
    - target: {fileID: 1232642526394195319, guid: be47ac35f899a42c2b88ba88da941498, type: 3}
      propertyPath: m_LocalEulerAnglesHint.x
      value: 0
      objectReference: {fileID: 0}
    - target: {fileID: 1232642526394195319, guid: be47ac35f899a42c2b88ba88da941498, type: 3}
      propertyPath: m_LocalEulerAnglesHint.y
      value: 0
      objectReference: {fileID: 0}
    - target: {fileID: 1232642526394195319, guid: be47ac35f899a42c2b88ba88da941498, type: 3}
      propertyPath: m_LocalEulerAnglesHint.z
      value: 0
      objectReference: {fileID: 0}
    m_RemovedComponents: []
  m_SourcePrefab: {fileID: 100100000, guid: be47ac35f899a42c2b88ba88da941498, type: 3}
--- !u!1001 &808777001
PrefabInstance:
  m_ObjectHideFlags: 0
  serializedVersion: 2
  m_Modification:
    m_TransformParent: {fileID: 1072210415}
    m_Modifications:
    - target: {fileID: 747049159031288287, guid: 29bbcad1aec454191b36de1f52bd2a67, type: 3}
      propertyPath: m_RootOrder
      value: 0
      objectReference: {fileID: 0}
    - target: {fileID: 747049159031288287, guid: 29bbcad1aec454191b36de1f52bd2a67, type: 3}
      propertyPath: m_LocalPosition.x
      value: 46.45
      objectReference: {fileID: 0}
    - target: {fileID: 747049159031288287, guid: 29bbcad1aec454191b36de1f52bd2a67, type: 3}
      propertyPath: m_LocalPosition.y
      value: 0
      objectReference: {fileID: 0}
    - target: {fileID: 747049159031288287, guid: 29bbcad1aec454191b36de1f52bd2a67, type: 3}
      propertyPath: m_LocalPosition.z
      value: 0
      objectReference: {fileID: 0}
    - target: {fileID: 747049159031288287, guid: 29bbcad1aec454191b36de1f52bd2a67, type: 3}
      propertyPath: m_LocalRotation.w
      value: 1
      objectReference: {fileID: 0}
    - target: {fileID: 747049159031288287, guid: 29bbcad1aec454191b36de1f52bd2a67, type: 3}
      propertyPath: m_LocalRotation.x
      value: 0
      objectReference: {fileID: 0}
    - target: {fileID: 747049159031288287, guid: 29bbcad1aec454191b36de1f52bd2a67, type: 3}
      propertyPath: m_LocalRotation.y
      value: 0
      objectReference: {fileID: 0}
    - target: {fileID: 747049159031288287, guid: 29bbcad1aec454191b36de1f52bd2a67, type: 3}
      propertyPath: m_LocalRotation.z
      value: 0
      objectReference: {fileID: 0}
    - target: {fileID: 747049159031288287, guid: 29bbcad1aec454191b36de1f52bd2a67, type: 3}
      propertyPath: m_LocalEulerAnglesHint.x
      value: 0
      objectReference: {fileID: 0}
    - target: {fileID: 747049159031288287, guid: 29bbcad1aec454191b36de1f52bd2a67, type: 3}
      propertyPath: m_LocalEulerAnglesHint.y
      value: 0
      objectReference: {fileID: 0}
    - target: {fileID: 747049159031288287, guid: 29bbcad1aec454191b36de1f52bd2a67, type: 3}
      propertyPath: m_LocalEulerAnglesHint.z
      value: 0
      objectReference: {fileID: 0}
    - target: {fileID: 2265413072658640561, guid: 29bbcad1aec454191b36de1f52bd2a67, type: 3}
      propertyPath: m_Name
      value: GoalGate
      objectReference: {fileID: 0}
    m_RemovedComponents: []
  m_SourcePrefab: {fileID: 100100000, guid: 29bbcad1aec454191b36de1f52bd2a67, type: 3}
--- !u!1001 &853144143
PrefabInstance:
  m_ObjectHideFlags: 0
  serializedVersion: 2
  m_Modification:
    m_TransformParent: {fileID: 0}
    m_Modifications:
    - target: {fileID: 1611373715402337260, guid: 69347ec506edf4a1fa75d528d6403166, type: 3}
      propertyPath: m_RootOrder
      value: 8
      objectReference: {fileID: 0}
    - target: {fileID: 1611373715402337260, guid: 69347ec506edf4a1fa75d528d6403166, type: 3}
      propertyPath: m_LocalScale.x
      value: 2.6419692
      objectReference: {fileID: 0}
    - target: {fileID: 1611373715402337260, guid: 69347ec506edf4a1fa75d528d6403166, type: 3}
      propertyPath: m_LocalScale.y
      value: 0.45481476
      objectReference: {fileID: 0}
    - target: {fileID: 1611373715402337260, guid: 69347ec506edf4a1fa75d528d6403166, type: 3}
      propertyPath: m_LocalScale.z
      value: 2.0970461
      objectReference: {fileID: 0}
    - target: {fileID: 1611373715402337260, guid: 69347ec506edf4a1fa75d528d6403166, type: 3}
      propertyPath: m_LocalPosition.x
      value: 18.37
      objectReference: {fileID: 0}
    - target: {fileID: 1611373715402337260, guid: 69347ec506edf4a1fa75d528d6403166, type: 3}
      propertyPath: m_LocalPosition.y
      value: 1.25
      objectReference: {fileID: 0}
    - target: {fileID: 1611373715402337260, guid: 69347ec506edf4a1fa75d528d6403166, type: 3}
      propertyPath: m_LocalPosition.z
      value: 0.01
      objectReference: {fileID: 0}
    - target: {fileID: 1611373715402337260, guid: 69347ec506edf4a1fa75d528d6403166, type: 3}
      propertyPath: m_LocalRotation.w
      value: 1
      objectReference: {fileID: 0}
    - target: {fileID: 1611373715402337260, guid: 69347ec506edf4a1fa75d528d6403166, type: 3}
      propertyPath: m_LocalRotation.x
      value: 0
      objectReference: {fileID: 0}
    - target: {fileID: 1611373715402337260, guid: 69347ec506edf4a1fa75d528d6403166, type: 3}
      propertyPath: m_LocalRotation.y
      value: 0
      objectReference: {fileID: 0}
    - target: {fileID: 1611373715402337260, guid: 69347ec506edf4a1fa75d528d6403166, type: 3}
      propertyPath: m_LocalRotation.z
      value: 0
      objectReference: {fileID: 0}
    - target: {fileID: 1611373715402337260, guid: 69347ec506edf4a1fa75d528d6403166, type: 3}
      propertyPath: m_LocalEulerAnglesHint.x
      value: 0
      objectReference: {fileID: 0}
    - target: {fileID: 1611373715402337260, guid: 69347ec506edf4a1fa75d528d6403166, type: 3}
      propertyPath: m_LocalEulerAnglesHint.y
      value: 0
      objectReference: {fileID: 0}
    - target: {fileID: 1611373715402337260, guid: 69347ec506edf4a1fa75d528d6403166, type: 3}
      propertyPath: m_LocalEulerAnglesHint.z
      value: 0
      objectReference: {fileID: 0}
    - target: {fileID: 3700365744653131959, guid: 69347ec506edf4a1fa75d528d6403166, type: 3}
      propertyPath: m_Name
      value: Lava (1)
      objectReference: {fileID: 0}
    m_RemovedComponents: []
  m_SourcePrefab: {fileID: 100100000, guid: 69347ec506edf4a1fa75d528d6403166, type: 3}
--- !u!224 &1044969133 stripped
RectTransform:
  m_CorrespondingSourceObject: {fileID: 2425574232936935157, guid: 121f86fb39eee44fab4c667b07955a56, type: 3}
  m_PrefabInstance: {fileID: 1659233203}
  m_PrefabAsset: {fileID: 0}
--- !u!1 &1072210414
GameObject:
  m_ObjectHideFlags: 0
  m_CorrespondingSourceObject: {fileID: 0}
  m_PrefabInstance: {fileID: 0}
  m_PrefabAsset: {fileID: 0}
  serializedVersion: 6
  m_Component:
  - component: {fileID: 1072210415}
  m_Layer: 0
  m_Name: Terrain
  m_TagString: Untagged
  m_Icon: {fileID: 0}
  m_NavMeshLayer: 0
  m_StaticEditorFlags: 0
  m_IsActive: 1
--- !u!4 &1072210415
Transform:
  m_ObjectHideFlags: 0
  m_CorrespondingSourceObject: {fileID: 0}
  m_PrefabInstance: {fileID: 0}
  m_PrefabAsset: {fileID: 0}
  m_GameObject: {fileID: 1072210414}
  m_LocalRotation: {x: 0, y: 0, z: 0, w: 1}
  m_LocalPosition: {x: 0, y: 0, z: 0}
  m_LocalScale: {x: 1, y: 1, z: 1}
  m_Children:
  - {fileID: 1968698144}
  - {fileID: 1963787968}
  m_Father: {fileID: 0}
  m_RootOrder: 7
  m_LocalEulerAnglesHint: {x: 0, y: 0, z: 0}
--- !u!1001 &1187536508
PrefabInstance:
  m_ObjectHideFlags: 0
  serializedVersion: 2
  m_Modification:
    m_TransformParent: {fileID: 0}
    m_Modifications:
    - target: {fileID: 5277711265749226526, guid: e4ee39a13a9862345ad17ffcb589c0a8, type: 3}
      propertyPath: m_RootOrder
      value: 14
      objectReference: {fileID: 0}
    - target: {fileID: 5277711265749226526, guid: e4ee39a13a9862345ad17ffcb589c0a8, type: 3}
      propertyPath: m_LocalScale.x
      value: 3.3745286
      objectReference: {fileID: 0}
    - target: {fileID: 5277711265749226526, guid: e4ee39a13a9862345ad17ffcb589c0a8, type: 3}
      propertyPath: m_LocalScale.y
      value: 7.3954678
      objectReference: {fileID: 0}
    - target: {fileID: 5277711265749226526, guid: e4ee39a13a9862345ad17ffcb589c0a8, type: 3}
      propertyPath: m_LocalScale.z
      value: 1.9437295
      objectReference: {fileID: 0}
    - target: {fileID: 5277711265749226526, guid: e4ee39a13a9862345ad17ffcb589c0a8, type: 3}
      propertyPath: m_LocalPosition.x
      value: 6.39
      objectReference: {fileID: 0}
    - target: {fileID: 5277711265749226526, guid: e4ee39a13a9862345ad17ffcb589c0a8, type: 3}
      propertyPath: m_LocalPosition.y
      value: 4.08
      objectReference: {fileID: 0}
    - target: {fileID: 5277711265749226526, guid: e4ee39a13a9862345ad17ffcb589c0a8, type: 3}
      propertyPath: m_LocalPosition.z
      value: 0
      objectReference: {fileID: 0}
    - target: {fileID: 5277711265749226526, guid: e4ee39a13a9862345ad17ffcb589c0a8, type: 3}
      propertyPath: m_LocalRotation.w
      value: 1
      objectReference: {fileID: 0}
    - target: {fileID: 5277711265749226526, guid: e4ee39a13a9862345ad17ffcb589c0a8, type: 3}
      propertyPath: m_LocalRotation.x
      value: 0
      objectReference: {fileID: 0}
    - target: {fileID: 5277711265749226526, guid: e4ee39a13a9862345ad17ffcb589c0a8, type: 3}
      propertyPath: m_LocalRotation.y
      value: 0
      objectReference: {fileID: 0}
    - target: {fileID: 5277711265749226526, guid: e4ee39a13a9862345ad17ffcb589c0a8, type: 3}
      propertyPath: m_LocalRotation.z
      value: 0
      objectReference: {fileID: 0}
    - target: {fileID: 5277711265749226526, guid: e4ee39a13a9862345ad17ffcb589c0a8, type: 3}
      propertyPath: m_LocalEulerAnglesHint.x
      value: 0
      objectReference: {fileID: 0}
    - target: {fileID: 5277711265749226526, guid: e4ee39a13a9862345ad17ffcb589c0a8, type: 3}
      propertyPath: m_LocalEulerAnglesHint.y
      value: 0
      objectReference: {fileID: 0}
    - target: {fileID: 5277711265749226526, guid: e4ee39a13a9862345ad17ffcb589c0a8, type: 3}
      propertyPath: m_LocalEulerAnglesHint.z
      value: 0
      objectReference: {fileID: 0}
    - target: {fileID: 5816127101644977635, guid: e4ee39a13a9862345ad17ffcb589c0a8, type: 3}
      propertyPath: m_Name
      value: Wall (5)
      objectReference: {fileID: 0}
    m_RemovedComponents: []
  m_SourcePrefab: {fileID: 100100000, guid: e4ee39a13a9862345ad17ffcb589c0a8, type: 3}
--- !u!1001 &1281879419
PrefabInstance:
  m_ObjectHideFlags: 0
  serializedVersion: 2
  m_Modification:
    m_TransformParent: {fileID: 0}
    m_Modifications:
    - target: {fileID: 5277711265749226526, guid: e4ee39a13a9862345ad17ffcb589c0a8, type: 3}
      propertyPath: m_RootOrder
      value: 12
      objectReference: {fileID: 0}
    - target: {fileID: 5277711265749226526, guid: e4ee39a13a9862345ad17ffcb589c0a8, type: 3}
      propertyPath: m_LocalScale.x
      value: 2.4177032
      objectReference: {fileID: 0}
    - target: {fileID: 5277711265749226526, guid: e4ee39a13a9862345ad17ffcb589c0a8, type: 3}
      propertyPath: m_LocalScale.y
      value: 3.2468905
      objectReference: {fileID: 0}
    - target: {fileID: 5277711265749226526, guid: e4ee39a13a9862345ad17ffcb589c0a8, type: 3}
      propertyPath: m_LocalScale.z
      value: 1.9437295
      objectReference: {fileID: 0}
    - target: {fileID: 5277711265749226526, guid: e4ee39a13a9862345ad17ffcb589c0a8, type: 3}
      propertyPath: m_LocalPosition.x
      value: 18.41
      objectReference: {fileID: 0}
    - target: {fileID: 5277711265749226526, guid: e4ee39a13a9862345ad17ffcb589c0a8, type: 3}
      propertyPath: m_LocalPosition.y
      value: -0.62
      objectReference: {fileID: 0}
    - target: {fileID: 5277711265749226526, guid: e4ee39a13a9862345ad17ffcb589c0a8, type: 3}
      propertyPath: m_LocalPosition.z
      value: 0
      objectReference: {fileID: 0}
    - target: {fileID: 5277711265749226526, guid: e4ee39a13a9862345ad17ffcb589c0a8, type: 3}
      propertyPath: m_LocalRotation.w
      value: 1
      objectReference: {fileID: 0}
    - target: {fileID: 5277711265749226526, guid: e4ee39a13a9862345ad17ffcb589c0a8, type: 3}
      propertyPath: m_LocalRotation.x
      value: 0
      objectReference: {fileID: 0}
    - target: {fileID: 5277711265749226526, guid: e4ee39a13a9862345ad17ffcb589c0a8, type: 3}
      propertyPath: m_LocalRotation.y
      value: 0
      objectReference: {fileID: 0}
    - target: {fileID: 5277711265749226526, guid: e4ee39a13a9862345ad17ffcb589c0a8, type: 3}
      propertyPath: m_LocalRotation.z
      value: 0
      objectReference: {fileID: 0}
    - target: {fileID: 5277711265749226526, guid: e4ee39a13a9862345ad17ffcb589c0a8, type: 3}
      propertyPath: m_LocalEulerAnglesHint.x
      value: 0
      objectReference: {fileID: 0}
    - target: {fileID: 5277711265749226526, guid: e4ee39a13a9862345ad17ffcb589c0a8, type: 3}
      propertyPath: m_LocalEulerAnglesHint.y
      value: 0
      objectReference: {fileID: 0}
    - target: {fileID: 5277711265749226526, guid: e4ee39a13a9862345ad17ffcb589c0a8, type: 3}
      propertyPath: m_LocalEulerAnglesHint.z
      value: 0
      objectReference: {fileID: 0}
    - target: {fileID: 5816127101644977635, guid: e4ee39a13a9862345ad17ffcb589c0a8, type: 3}
      propertyPath: m_Name
      value: Wall (3)
      objectReference: {fileID: 0}
    m_RemovedComponents: []
  m_SourcePrefab: {fileID: 100100000, guid: e4ee39a13a9862345ad17ffcb589c0a8, type: 3}
--- !u!1001 &1349916720
PrefabInstance:
  m_ObjectHideFlags: 0
  serializedVersion: 2
  m_Modification:
    m_TransformParent: {fileID: 0}
    m_Modifications:
    - target: {fileID: 5277711265749226526, guid: e4ee39a13a9862345ad17ffcb589c0a8, type: 3}
      propertyPath: m_RootOrder
      value: 10
      objectReference: {fileID: 0}
    - target: {fileID: 5277711265749226526, guid: e4ee39a13a9862345ad17ffcb589c0a8, type: 3}
      propertyPath: m_LocalScale.x
      value: 25.525106
      objectReference: {fileID: 0}
    - target: {fileID: 5277711265749226526, guid: e4ee39a13a9862345ad17ffcb589c0a8, type: 3}
      propertyPath: m_LocalScale.y
      value: 8.480593
      objectReference: {fileID: 0}
    - target: {fileID: 5277711265749226526, guid: e4ee39a13a9862345ad17ffcb589c0a8, type: 3}
      propertyPath: m_LocalScale.z
      value: 1.9437295
      objectReference: {fileID: 0}
    - target: {fileID: 5277711265749226526, guid: e4ee39a13a9862345ad17ffcb589c0a8, type: 3}
      propertyPath: m_LocalPosition.x
      value: 17.41
      objectReference: {fileID: 0}
    - target: {fileID: 5277711265749226526, guid: e4ee39a13a9862345ad17ffcb589c0a8, type: 3}
      propertyPath: m_LocalPosition.y
      value: 11.88
      objectReference: {fileID: 0}
    - target: {fileID: 5277711265749226526, guid: e4ee39a13a9862345ad17ffcb589c0a8, type: 3}
      propertyPath: m_LocalPosition.z
      value: 0
      objectReference: {fileID: 0}
    - target: {fileID: 5277711265749226526, guid: e4ee39a13a9862345ad17ffcb589c0a8, type: 3}
      propertyPath: m_LocalRotation.w
      value: 1
      objectReference: {fileID: 0}
    - target: {fileID: 5277711265749226526, guid: e4ee39a13a9862345ad17ffcb589c0a8, type: 3}
      propertyPath: m_LocalRotation.x
      value: 0
      objectReference: {fileID: 0}
    - target: {fileID: 5277711265749226526, guid: e4ee39a13a9862345ad17ffcb589c0a8, type: 3}
      propertyPath: m_LocalRotation.y
      value: 0
      objectReference: {fileID: 0}
    - target: {fileID: 5277711265749226526, guid: e4ee39a13a9862345ad17ffcb589c0a8, type: 3}
      propertyPath: m_LocalRotation.z
      value: 0
      objectReference: {fileID: 0}
    - target: {fileID: 5277711265749226526, guid: e4ee39a13a9862345ad17ffcb589c0a8, type: 3}
      propertyPath: m_LocalEulerAnglesHint.x
      value: 0
      objectReference: {fileID: 0}
    - target: {fileID: 5277711265749226526, guid: e4ee39a13a9862345ad17ffcb589c0a8, type: 3}
      propertyPath: m_LocalEulerAnglesHint.y
      value: 0
      objectReference: {fileID: 0}
    - target: {fileID: 5277711265749226526, guid: e4ee39a13a9862345ad17ffcb589c0a8, type: 3}
      propertyPath: m_LocalEulerAnglesHint.z
      value: 0
      objectReference: {fileID: 0}
    - target: {fileID: 5816127101644977635, guid: e4ee39a13a9862345ad17ffcb589c0a8, type: 3}
      propertyPath: m_Name
      value: Wall (1)
      objectReference: {fileID: 0}
    m_RemovedComponents: []
  m_SourcePrefab: {fileID: 100100000, guid: e4ee39a13a9862345ad17ffcb589c0a8, type: 3}
--- !u!1001 &1353041825
PrefabInstance:
  m_ObjectHideFlags: 0
  serializedVersion: 2
  m_Modification:
    m_TransformParent: {fileID: 0}
    m_Modifications:
    - target: {fileID: 388290615712883373, guid: 84cdaea7e8c0742a1979f52df6d1db4d, type: 3}
      propertyPath: Health
      value: 150
      objectReference: {fileID: 0}
    - target: {fileID: 388290615712883373, guid: 84cdaea7e8c0742a1979f52df6d1db4d, type: 3}
      propertyPath: JumpForce
      value: 400
      objectReference: {fileID: 0}
    - target: {fileID: 388290615712883536, guid: 84cdaea7e8c0742a1979f52df6d1db4d, type: 3}
      propertyPath: m_RootOrder
      value: 6
      objectReference: {fileID: 0}
    - target: {fileID: 388290615712883536, guid: 84cdaea7e8c0742a1979f52df6d1db4d, type: 3}
      propertyPath: m_LocalPosition.x
      value: -9
      objectReference: {fileID: 0}
    - target: {fileID: 388290615712883536, guid: 84cdaea7e8c0742a1979f52df6d1db4d, type: 3}
      propertyPath: m_LocalPosition.y
      value: 1
      objectReference: {fileID: 0}
    - target: {fileID: 388290615712883536, guid: 84cdaea7e8c0742a1979f52df6d1db4d, type: 3}
      propertyPath: m_LocalPosition.z
      value: 0
      objectReference: {fileID: 0}
    - target: {fileID: 388290615712883536, guid: 84cdaea7e8c0742a1979f52df6d1db4d, type: 3}
      propertyPath: m_LocalRotation.w
      value: 1
      objectReference: {fileID: 0}
    - target: {fileID: 388290615712883536, guid: 84cdaea7e8c0742a1979f52df6d1db4d, type: 3}
      propertyPath: m_LocalRotation.x
      value: -0
      objectReference: {fileID: 0}
    - target: {fileID: 388290615712883536, guid: 84cdaea7e8c0742a1979f52df6d1db4d, type: 3}
      propertyPath: m_LocalRotation.y
      value: -0
      objectReference: {fileID: 0}
    - target: {fileID: 388290615712883536, guid: 84cdaea7e8c0742a1979f52df6d1db4d, type: 3}
      propertyPath: m_LocalRotation.z
      value: -0
      objectReference: {fileID: 0}
    - target: {fileID: 388290615712883536, guid: 84cdaea7e8c0742a1979f52df6d1db4d, type: 3}
      propertyPath: m_LocalEulerAnglesHint.x
      value: 0
      objectReference: {fileID: 0}
    - target: {fileID: 388290615712883536, guid: 84cdaea7e8c0742a1979f52df6d1db4d, type: 3}
      propertyPath: m_LocalEulerAnglesHint.y
      value: 0
      objectReference: {fileID: 0}
    - target: {fileID: 388290615712883536, guid: 84cdaea7e8c0742a1979f52df6d1db4d, type: 3}
      propertyPath: m_LocalEulerAnglesHint.z
      value: 0
      objectReference: {fileID: 0}
    - target: {fileID: 388290615712883537, guid: 84cdaea7e8c0742a1979f52df6d1db4d, type: 3}
      propertyPath: m_AngularDrag
      value: 0
      objectReference: {fileID: 0}
    - target: {fileID: 388290615712883538, guid: 84cdaea7e8c0742a1979f52df6d1db4d, type: 3}
      propertyPath: m_Enabled
      value: 1
      objectReference: {fileID: 0}
    - target: {fileID: 388290615712883543, guid: 84cdaea7e8c0742a1979f52df6d1db4d, type: 3}
      propertyPath: m_Name
      value: Player
      objectReference: {fileID: 0}
    m_RemovedComponents: []
  m_SourcePrefab: {fileID: 100100000, guid: 84cdaea7e8c0742a1979f52df6d1db4d, type: 3}
--- !u!1001 &1578365227
PrefabInstance:
  m_ObjectHideFlags: 0
  serializedVersion: 2
  m_Modification:
    m_TransformParent: {fileID: 0}
    m_Modifications:
    - target: {fileID: 1611373715402337260, guid: 69347ec506edf4a1fa75d528d6403166, type: 3}
      propertyPath: m_RootOrder
      value: 3
      objectReference: {fileID: 0}
    - target: {fileID: 1611373715402337260, guid: 69347ec506edf4a1fa75d528d6403166, type: 3}
      propertyPath: m_LocalScale.x
      value: 3.9742007
      objectReference: {fileID: 0}
    - target: {fileID: 1611373715402337260, guid: 69347ec506edf4a1fa75d528d6403166, type: 3}
      propertyPath: m_LocalScale.y
      value: 0.31255838
      objectReference: {fileID: 0}
    - target: {fileID: 1611373715402337260, guid: 69347ec506edf4a1fa75d528d6403166, type: 3}
      propertyPath: m_LocalScale.z
      value: 2.0970461
      objectReference: {fileID: 0}
    - target: {fileID: 1611373715402337260, guid: 69347ec506edf4a1fa75d528d6403166, type: 3}
      propertyPath: m_LocalPosition.x
      value: 0.8984592
      objectReference: {fileID: 0}
    - target: {fileID: 1611373715402337260, guid: 69347ec506edf4a1fa75d528d6403166, type: 3}
      propertyPath: m_LocalPosition.y
      value: -1.34
      objectReference: {fileID: 0}
    - target: {fileID: 1611373715402337260, guid: 69347ec506edf4a1fa75d528d6403166, type: 3}
      propertyPath: m_LocalPosition.z
      value: 0.01
      objectReference: {fileID: 0}
    - target: {fileID: 1611373715402337260, guid: 69347ec506edf4a1fa75d528d6403166, type: 3}
      propertyPath: m_LocalRotation.w
      value: 1
      objectReference: {fileID: 0}
    - target: {fileID: 1611373715402337260, guid: 69347ec506edf4a1fa75d528d6403166, type: 3}
      propertyPath: m_LocalRotation.x
      value: 0
      objectReference: {fileID: 0}
    - target: {fileID: 1611373715402337260, guid: 69347ec506edf4a1fa75d528d6403166, type: 3}
      propertyPath: m_LocalRotation.y
      value: 0
      objectReference: {fileID: 0}
    - target: {fileID: 1611373715402337260, guid: 69347ec506edf4a1fa75d528d6403166, type: 3}
      propertyPath: m_LocalRotation.z
      value: 0
      objectReference: {fileID: 0}
    - target: {fileID: 1611373715402337260, guid: 69347ec506edf4a1fa75d528d6403166, type: 3}
      propertyPath: m_LocalEulerAnglesHint.x
      value: 0
      objectReference: {fileID: 0}
    - target: {fileID: 1611373715402337260, guid: 69347ec506edf4a1fa75d528d6403166, type: 3}
      propertyPath: m_LocalEulerAnglesHint.y
      value: 0
      objectReference: {fileID: 0}
    - target: {fileID: 1611373715402337260, guid: 69347ec506edf4a1fa75d528d6403166, type: 3}
      propertyPath: m_LocalEulerAnglesHint.z
      value: 0
      objectReference: {fileID: 0}
    - target: {fileID: 3700365744653131959, guid: 69347ec506edf4a1fa75d528d6403166, type: 3}
      propertyPath: m_Name
      value: Lava
      objectReference: {fileID: 0}
    m_RemovedComponents: []
  m_SourcePrefab: {fileID: 100100000, guid: 69347ec506edf4a1fa75d528d6403166, type: 3}
--- !u!1001 &1593301278
PrefabInstance:
  m_ObjectHideFlags: 0
  serializedVersion: 2
  m_Modification:
    m_TransformParent: {fileID: 0}
    m_Modifications:
    - target: {fileID: 2326340101419835250, guid: 3f000e8ddecb748a09b1d673c4bfc94d, type: 3}
      propertyPath: m_Name
      value: Camera
      objectReference: {fileID: 0}
    - target: {fileID: 2326340101419835255, guid: 3f000e8ddecb748a09b1d673c4bfc94d, type: 3}
      propertyPath: m_RootOrder
      value: 0
      objectReference: {fileID: 0}
    - target: {fileID: 2326340101419835255, guid: 3f000e8ddecb748a09b1d673c4bfc94d, type: 3}
      propertyPath: m_LocalPosition.x
      value: -5.8
      objectReference: {fileID: 0}
    - target: {fileID: 2326340101419835255, guid: 3f000e8ddecb748a09b1d673c4bfc94d, type: 3}
      propertyPath: m_LocalPosition.y
      value: 13.1
      objectReference: {fileID: 0}
    - target: {fileID: 2326340101419835255, guid: 3f000e8ddecb748a09b1d673c4bfc94d, type: 3}
      propertyPath: m_LocalPosition.z
      value: -17.02
      objectReference: {fileID: 0}
    - target: {fileID: 2326340101419835255, guid: 3f000e8ddecb748a09b1d673c4bfc94d, type: 3}
      propertyPath: m_LocalRotation.w
      value: 0.95095754
      objectReference: {fileID: 0}
    - target: {fileID: 2326340101419835255, guid: 3f000e8ddecb748a09b1d673c4bfc94d, type: 3}
      propertyPath: m_LocalRotation.x
      value: 0.22979724
      objectReference: {fileID: 0}
    - target: {fileID: 2326340101419835255, guid: 3f000e8ddecb748a09b1d673c4bfc94d, type: 3}
      propertyPath: m_LocalRotation.y
      value: 0.20126499
      objectReference: {fileID: 0}
    - target: {fileID: 2326340101419835255, guid: 3f000e8ddecb748a09b1d673c4bfc94d, type: 3}
      propertyPath: m_LocalRotation.z
      value: -0.048635338
      objectReference: {fileID: 0}
    - target: {fileID: 2326340101419835255, guid: 3f000e8ddecb748a09b1d673c4bfc94d, type: 3}
      propertyPath: m_LocalEulerAnglesHint.x
      value: 27.17
      objectReference: {fileID: 0}
    - target: {fileID: 2326340101419835255, guid: 3f000e8ddecb748a09b1d673c4bfc94d, type: 3}
      propertyPath: m_LocalEulerAnglesHint.y
      value: 23.9
      objectReference: {fileID: 0}
    - target: {fileID: 2326340101419835255, guid: 3f000e8ddecb748a09b1d673c4bfc94d, type: 3}
      propertyPath: m_LocalEulerAnglesHint.z
      value: 0
      objectReference: {fileID: 0}
    m_RemovedComponents: []
  m_SourcePrefab: {fileID: 100100000, guid: 3f000e8ddecb748a09b1d673c4bfc94d, type: 3}
--- !u!1001 &1659233203
PrefabInstance:
  m_ObjectHideFlags: 0
  serializedVersion: 2
  m_Modification:
    m_TransformParent: {fileID: 0}
    m_Modifications:
    - target: {fileID: 2603942412967885802, guid: 121f86fb39eee44fab4c667b07955a56, type: 3}
      propertyPath: m_Name
      value: TextHealth
      objectReference: {fileID: 0}
    - target: {fileID: 5599447260040897483, guid: 121f86fb39eee44fab4c667b07955a56, type: 3}
      propertyPath: m_AnchoredPosition.x
      value: -10
      objectReference: {fileID: 0}
    - target: {fileID: 5599447260040897483, guid: 121f86fb39eee44fab4c667b07955a56, type: 3}
      propertyPath: m_AnchoredPosition.y
      value: -14
      objectReference: {fileID: 0}
    - target: {fileID: 6291972051182949576, guid: 121f86fb39eee44fab4c667b07955a56, type: 3}
      propertyPath: m_RootOrder
      value: 5
      objectReference: {fileID: 0}
    - target: {fileID: 6291972051182949576, guid: 121f86fb39eee44fab4c667b07955a56, type: 3}
      propertyPath: m_LocalPosition.x
      value: 0
      objectReference: {fileID: 0}
    - target: {fileID: 6291972051182949576, guid: 121f86fb39eee44fab4c667b07955a56, type: 3}
      propertyPath: m_LocalPosition.y
      value: 0
      objectReference: {fileID: 0}
    - target: {fileID: 6291972051182949576, guid: 121f86fb39eee44fab4c667b07955a56, type: 3}
      propertyPath: m_LocalPosition.z
      value: 0
      objectReference: {fileID: 0}
    - target: {fileID: 6291972051182949576, guid: 121f86fb39eee44fab4c667b07955a56, type: 3}
      propertyPath: m_LocalRotation.w
      value: 1
      objectReference: {fileID: 0}
    - target: {fileID: 6291972051182949576, guid: 121f86fb39eee44fab4c667b07955a56, type: 3}
      propertyPath: m_LocalRotation.x
      value: 0
      objectReference: {fileID: 0}
    - target: {fileID: 6291972051182949576, guid: 121f86fb39eee44fab4c667b07955a56, type: 3}
      propertyPath: m_LocalRotation.y
      value: 0
      objectReference: {fileID: 0}
    - target: {fileID: 6291972051182949576, guid: 121f86fb39eee44fab4c667b07955a56, type: 3}
      propertyPath: m_LocalRotation.z
      value: 0
      objectReference: {fileID: 0}
    - target: {fileID: 6291972051182949576, guid: 121f86fb39eee44fab4c667b07955a56, type: 3}
      propertyPath: m_LocalEulerAnglesHint.x
      value: 0
      objectReference: {fileID: 0}
    - target: {fileID: 6291972051182949576, guid: 121f86fb39eee44fab4c667b07955a56, type: 3}
      propertyPath: m_LocalEulerAnglesHint.y
      value: 0
      objectReference: {fileID: 0}
    - target: {fileID: 6291972051182949576, guid: 121f86fb39eee44fab4c667b07955a56, type: 3}
      propertyPath: m_LocalEulerAnglesHint.z
      value: 0
      objectReference: {fileID: 0}
    - target: {fileID: 6291972051182949577, guid: 121f86fb39eee44fab4c667b07955a56, type: 3}
      propertyPath: m_Name
      value: GameManager
      objectReference: {fileID: 0}
    - target: {fileID: 6291972051182949583, guid: 121f86fb39eee44fab4c667b07955a56, type: 3}
      propertyPath: Goal
      value: 
      objectReference: {fileID: 1968698144}
    - target: {fileID: 6291972051182949583, guid: 121f86fb39eee44fab4c667b07955a56, type: 3}
      propertyPath: TextTimer
      value: 
      objectReference: {fileID: 208221188}
    m_RemovedComponents: []
  m_SourcePrefab: {fileID: 100100000, guid: 121f86fb39eee44fab4c667b07955a56, type: 3}
--- !u!1 &1663054996
GameObject:
  m_ObjectHideFlags: 0
  m_CorrespondingSourceObject: {fileID: 0}
  m_PrefabInstance: {fileID: 0}
  m_PrefabAsset: {fileID: 0}
  serializedVersion: 6
  m_Component:
  - component: {fileID: 1663055000}
  - component: {fileID: 1663054999}
  - component: {fileID: 1663054998}
  - component: {fileID: 1663054997}
  m_Layer: 0
  m_Name: Cube
  m_TagString: Untagged
  m_Icon: {fileID: 0}
  m_NavMeshLayer: 0
  m_StaticEditorFlags: 0
  m_IsActive: 1
--- !u!65 &1663054997
BoxCollider:
  m_ObjectHideFlags: 0
  m_CorrespondingSourceObject: {fileID: 0}
  m_PrefabInstance: {fileID: 0}
  m_PrefabAsset: {fileID: 0}
  m_GameObject: {fileID: 1663054996}
  m_Material: {fileID: 0}
  m_IsTrigger: 0
  m_Enabled: 1
  serializedVersion: 2
  m_Size: {x: 1, y: 1, z: 1}
  m_Center: {x: 0, y: 0, z: 0}
--- !u!23 &1663054998
MeshRenderer:
  m_ObjectHideFlags: 0
  m_CorrespondingSourceObject: {fileID: 0}
  m_PrefabInstance: {fileID: 0}
  m_PrefabAsset: {fileID: 0}
  m_GameObject: {fileID: 1663054996}
  m_Enabled: 1
  m_CastShadows: 1
  m_ReceiveShadows: 1
  m_DynamicOccludee: 1
  m_MotionVectors: 1
  m_LightProbeUsage: 1
  m_ReflectionProbeUsage: 1
  m_RayTracingMode: 2
  m_RayTraceProcedural: 0
  m_RenderingLayerMask: 1
  m_RendererPriority: 0
  m_Materials:
  - {fileID: 2100000, guid: 5c13ff935b260447a861acd7df56ba6c, type: 2}
  m_StaticBatchInfo:
    firstSubMesh: 0
    subMeshCount: 0
  m_StaticBatchRoot: {fileID: 0}
  m_ProbeAnchor: {fileID: 0}
  m_LightProbeVolumeOverride: {fileID: 0}
  m_ScaleInLightmap: 1
  m_ReceiveGI: 1
  m_PreserveUVs: 0
  m_IgnoreNormalsForChartDetection: 0
  m_ImportantGI: 0
  m_StitchLightmapSeams: 1
  m_SelectedEditorRenderState: 3
  m_MinimumChartSize: 4
  m_AutoUVMaxDistance: 0.5
  m_AutoUVMaxAngle: 89
  m_LightmapParameters: {fileID: 0}
  m_SortingLayerID: 0
  m_SortingLayer: 0
  m_SortingOrder: 0
  m_AdditionalVertexStreams: {fileID: 0}
--- !u!33 &1663054999
MeshFilter:
  m_ObjectHideFlags: 0
  m_CorrespondingSourceObject: {fileID: 0}
  m_PrefabInstance: {fileID: 0}
  m_PrefabAsset: {fileID: 0}
  m_GameObject: {fileID: 1663054996}
  m_Mesh: {fileID: 10202, guid: 0000000000000000e000000000000000, type: 0}
--- !u!4 &1663055000
Transform:
  m_ObjectHideFlags: 0
  m_CorrespondingSourceObject: {fileID: 0}
  m_PrefabInstance: {fileID: 0}
  m_PrefabAsset: {fileID: 0}
  m_GameObject: {fileID: 1663054996}
  m_LocalRotation: {x: -0, y: -0, z: 0.19428138, w: 0.9809459}
  m_LocalPosition: {x: -3.26, y: -1.53, z: 0}
  m_LocalScale: {x: 2.8685, y: 1, z: 1.9305}
  m_Children: []
  m_Father: {fileID: 0}
  m_RootOrder: 9
  m_LocalEulerAnglesHint: {x: 0, y: 0, z: 22.405}
--- !u!1 &1935243836
GameObject:
  m_ObjectHideFlags: 0
  m_CorrespondingSourceObject: {fileID: 0}
  m_PrefabInstance: {fileID: 0}
  m_PrefabAsset: {fileID: 0}
  serializedVersion: 6
  m_Component:
  - component: {fileID: 1935243837}
  - component: {fileID: 1935243840}
  - component: {fileID: 1935243839}
  - component: {fileID: 1935243838}
  m_Layer: 0
  m_Name: LowerLayer
  m_TagString: Untagged
  m_Icon: {fileID: 0}
  m_NavMeshLayer: 0
  m_StaticEditorFlags: 0
  m_IsActive: 1
--- !u!4 &1935243837
Transform:
  m_ObjectHideFlags: 0
  m_CorrespondingSourceObject: {fileID: 0}
  m_PrefabInstance: {fileID: 0}
  m_PrefabAsset: {fileID: 0}
  m_GameObject: {fileID: 1935243836}
  m_LocalRotation: {x: 0, y: 0, z: 0, w: 1}
  m_LocalPosition: {x: 0, y: -15.34, z: 0}
  m_LocalScale: {x: 100, y: 27.538, z: 2}
  m_Children: []
  m_Father: {fileID: 1963787968}
  m_RootOrder: 0
  m_LocalEulerAnglesHint: {x: 0, y: 0, z: 0}
--- !u!65 &1935243838
BoxCollider:
  m_ObjectHideFlags: 0
  m_CorrespondingSourceObject: {fileID: 0}
  m_PrefabInstance: {fileID: 0}
  m_PrefabAsset: {fileID: 0}
  m_GameObject: {fileID: 1935243836}
  m_Material: {fileID: 0}
  m_IsTrigger: 0
  m_Enabled: 1
  serializedVersion: 2
  m_Size: {x: 1, y: 1, z: 1}
  m_Center: {x: 0, y: 0, z: 0}
--- !u!23 &1935243839
MeshRenderer:
  m_ObjectHideFlags: 0
  m_CorrespondingSourceObject: {fileID: 0}
  m_PrefabInstance: {fileID: 0}
  m_PrefabAsset: {fileID: 0}
  m_GameObject: {fileID: 1935243836}
  m_Enabled: 1
  m_CastShadows: 1
  m_ReceiveShadows: 1
  m_DynamicOccludee: 1
  m_MotionVectors: 1
  m_LightProbeUsage: 1
  m_ReflectionProbeUsage: 1
  m_RayTracingMode: 2
  m_RayTraceProcedural: 0
  m_RenderingLayerMask: 1
  m_RendererPriority: 0
  m_Materials:
  - {fileID: 2100000, guid: 5c13ff935b260447a861acd7df56ba6c, type: 2}
  m_StaticBatchInfo:
    firstSubMesh: 0
    subMeshCount: 0
  m_StaticBatchRoot: {fileID: 0}
  m_ProbeAnchor: {fileID: 0}
  m_LightProbeVolumeOverride: {fileID: 0}
  m_ScaleInLightmap: 1
  m_ReceiveGI: 1
  m_PreserveUVs: 0
  m_IgnoreNormalsForChartDetection: 0
  m_ImportantGI: 0
  m_StitchLightmapSeams: 1
  m_SelectedEditorRenderState: 3
  m_MinimumChartSize: 4
  m_AutoUVMaxDistance: 0.5
  m_AutoUVMaxAngle: 89
  m_LightmapParameters: {fileID: 0}
  m_SortingLayerID: 0
  m_SortingLayer: 0
  m_SortingOrder: 0
  m_AdditionalVertexStreams: {fileID: 0}
--- !u!33 &1935243840
MeshFilter:
  m_ObjectHideFlags: 0
  m_CorrespondingSourceObject: {fileID: 0}
  m_PrefabInstance: {fileID: 0}
  m_PrefabAsset: {fileID: 0}
  m_GameObject: {fileID: 1935243836}
  m_Mesh: {fileID: 10202, guid: 0000000000000000e000000000000000, type: 0}
--- !u!114 &1956082339 stripped
MonoBehaviour:
  m_CorrespondingSourceObject: {fileID: 388290615712883373, guid: 84cdaea7e8c0742a1979f52df6d1db4d, type: 3}
  m_PrefabInstance: {fileID: 1353041825}
  m_PrefabAsset: {fileID: 0}
  m_GameObject: {fileID: 0}
  m_Enabled: 1
  m_EditorHideFlags: 0
  m_Script: {fileID: 11500000, guid: f80a0e539d8d44b3596e4d319e608686, type: 3}
  m_Name: 
  m_EditorClassIdentifier: 
--- !u!1 &1963787967
GameObject:
  m_ObjectHideFlags: 0
  m_CorrespondingSourceObject: {fileID: 0}
  m_PrefabInstance: {fileID: 0}
  m_PrefabAsset: {fileID: 0}
  serializedVersion: 6
  m_Component:
  - component: {fileID: 1963787968}
  m_Layer: 0
  m_Name: Ground
  m_TagString: Untagged
  m_Icon: {fileID: 0}
  m_NavMeshLayer: 0
  m_StaticEditorFlags: 0
  m_IsActive: 1
--- !u!4 &1963787968
Transform:
  m_ObjectHideFlags: 0
  m_CorrespondingSourceObject: {fileID: 0}
  m_PrefabInstance: {fileID: 0}
  m_PrefabAsset: {fileID: 0}
  m_GameObject: {fileID: 1963787967}
  m_LocalRotation: {x: 0, y: 0, z: 0, w: 1}
  m_LocalPosition: {x: 0, y: 0, z: 0}
  m_LocalScale: {x: 1, y: 1, z: 1}
  m_Children:
  - {fileID: 1935243837}
  m_Father: {fileID: 1072210415}
  m_RootOrder: 1
  m_LocalEulerAnglesHint: {x: 0, y: 0, z: 0}
--- !u!4 &1968698144 stripped
Transform:
  m_CorrespondingSourceObject: {fileID: 747049159031288287, guid: 29bbcad1aec454191b36de1f52bd2a67, type: 3}
  m_PrefabInstance: {fileID: 808777001}
  m_PrefabAsset: {fileID: 0}
--- !u!1001 &2099335590
PrefabInstance:
  m_ObjectHideFlags: 0
  serializedVersion: 2
  m_Modification:
    m_TransformParent: {fileID: 0}
    m_Modifications:
    - target: {fileID: 5277711265749226526, guid: e4ee39a13a9862345ad17ffcb589c0a8, type: 3}
      propertyPath: m_RootOrder
      value: 13
      objectReference: {fileID: 0}
    - target: {fileID: 5277711265749226526, guid: e4ee39a13a9862345ad17ffcb589c0a8, type: 3}
      propertyPath: m_LocalScale.x
      value: 5.030998
      objectReference: {fileID: 0}
    - target: {fileID: 5277711265749226526, guid: e4ee39a13a9862345ad17ffcb589c0a8, type: 3}
      propertyPath: m_LocalScale.y
      value: 5.682383
      objectReference: {fileID: 0}
    - target: {fileID: 5277711265749226526, guid: e4ee39a13a9862345ad17ffcb589c0a8, type: 3}
      propertyPath: m_LocalScale.z
      value: 1.9437295
      objectReference: {fileID: 0}
    - target: {fileID: 5277711265749226526, guid: e4ee39a13a9862345ad17ffcb589c0a8, type: 3}
      propertyPath: m_LocalPosition.x
      value: 24.55
      objectReference: {fileID: 0}
    - target: {fileID: 5277711265749226526, guid: e4ee39a13a9862345ad17ffcb589c0a8, type: 3}
      propertyPath: m_LocalPosition.y
      value: 0.58
      objectReference: {fileID: 0}
    - target: {fileID: 5277711265749226526, guid: e4ee39a13a9862345ad17ffcb589c0a8, type: 3}
      propertyPath: m_LocalPosition.z
      value: 0
      objectReference: {fileID: 0}
    - target: {fileID: 5277711265749226526, guid: e4ee39a13a9862345ad17ffcb589c0a8, type: 3}
      propertyPath: m_LocalRotation.w
      value: 1
      objectReference: {fileID: 0}
    - target: {fileID: 5277711265749226526, guid: e4ee39a13a9862345ad17ffcb589c0a8, type: 3}
      propertyPath: m_LocalRotation.x
      value: 0
      objectReference: {fileID: 0}
    - target: {fileID: 5277711265749226526, guid: e4ee39a13a9862345ad17ffcb589c0a8, type: 3}
      propertyPath: m_LocalRotation.y
      value: 0
      objectReference: {fileID: 0}
    - target: {fileID: 5277711265749226526, guid: e4ee39a13a9862345ad17ffcb589c0a8, type: 3}
      propertyPath: m_LocalRotation.z
      value: 0
      objectReference: {fileID: 0}
    - target: {fileID: 5277711265749226526, guid: e4ee39a13a9862345ad17ffcb589c0a8, type: 3}
      propertyPath: m_LocalEulerAnglesHint.x
      value: 0
      objectReference: {fileID: 0}
    - target: {fileID: 5277711265749226526, guid: e4ee39a13a9862345ad17ffcb589c0a8, type: 3}
      propertyPath: m_LocalEulerAnglesHint.y
      value: 0
      objectReference: {fileID: 0}
    - target: {fileID: 5277711265749226526, guid: e4ee39a13a9862345ad17ffcb589c0a8, type: 3}
      propertyPath: m_LocalEulerAnglesHint.z
      value: 0
      objectReference: {fileID: 0}
    - target: {fileID: 5816127101644977635, guid: e4ee39a13a9862345ad17ffcb589c0a8, type: 3}
      propertyPath: m_Name
      value: Wall (4)
      objectReference: {fileID: 0}
    m_RemovedComponents: []
  m_SourcePrefab: {fileID: 100100000, guid: e4ee39a13a9862345ad17ffcb589c0a8, type: 3}
